transcript
# vsim -c top_tb 
# Start time: 21:50:26 on Jul 08,2026
# ** Note: (vsim-3813) Design is being optimized due to module recompilation...
# //  Questa Sim
# //  Version 10.6c linux Jul 25 2017
# //
# //  Copyright 1991-2017 Mentor Graphics Corporation
# //  All Rights Reserved.
# //
# //  QuestaSim and its associated documentation contain trade
# //  secrets and commercial or financial information that are the property of
# //  Mentor Graphics Corporation and are privileged, confidential,
# //  and exempt from disclosure under the Freedom of Information Act,
# //  5 U.S.C. Section 552. Furthermore, this information
# //  is prohibited from disclosure under the Trade Secrets Act,
# //  18 U.S.C. Section 1905.
# //
# Loading sv_std.std
# Loading work.ram_if(fast)
# Loading work.package_ram(fast)
# Loading work.top_tb(fast)
# ** Warning: (vsim-8441) driver.sv(36): Clocking block output vif.drv.add is not legal in this
# or another expression.
#    Time: 0 ns  Iteration: 0  Region: /package_ram File: package_ram.sv
# ** Warning: (vsim-8441) driver.sv(34): Clocking block output vif.drv.read_en is not legal in this
# or another expression.
#    Time: 0 ns  Iteration: 0  Region: /package_ram File: package_ram.sv
# ** Warning: (vsim-8441) driver.sv(35): Clocking block output vif.drv.write_data is not legal in this
# or another expression.
#    Time: 0 ns  Iteration: 0  Region: /package_ram File: package_ram.sv
# ** Warning: (vsim-8441) driver.sv(33): Clocking block output vif.drv.write_en is not legal in this
# or another expression.
#    Time: 0 ns  Iteration: 0  Region: /package_ram File: package_ram.sv
# GENERATOR Randomized transaction write_data=24, write_en=1, read_en=1, address=11                   0
# GENERATOR Randomized transaction write_data=3a, write_en=1, read_en=1, address=d                   0
# GENERATOR Randomized transaction write_data=33, write_en=0, read_en=0, address=a                   0
# GENERATOR Randomized transaction write_data=9c, write_en=1, read_en=0, address=1b                   0
# GENERATOR Randomized transaction write_data=59, write_en=0, read_en=1, address=14                   0
# GENERATOR Randomized transaction write_data=e9, write_en=0, read_en=0, address=7                   0
# GENERATOR Randomized transaction write_data=a1, write_en=1, read_en=1, address=c                   0
# GENERATOR Randomized transaction write_data=df, write_en=0, read_en=1, address=19                   0
# GENERATOR Randomized transaction write_data=de, write_en=1, read_en=0, address=2                   0
# GENERATOR Randomized transaction write_data=51, write_en=0, read_en=1, address=8                   0
# GENERATOR Randomized transaction write_data=d, write_en=1, read_en=1, address=1a                   0
# GENERATOR Randomized transaction write_data=63, write_en=1, read_en=1, address=6                   0
# GENERATOR Randomized transaction write_data=56, write_en=1, read_en=1, address=19                   0
# GENERATOR Randomized transaction write_data=c8, write_en=0, read_en=0, address=1f                   0
# GENERATOR Randomized transaction write_data=fc, write_en=1, read_en=0, address=19                   0
# GENERATOR Randomized transaction write_data=a, write_en=1, read_en=0, address=1e                   0
# GENERATOR Randomized transaction write_data=ce, write_en=0, read_en=1, address=2                   0
# GENERATOR Randomized transaction write_data=41, write_en=1, read_en=1, address=15                   0
# GENERATOR Randomized transaction write_data=22, write_en=1, read_en=1, address=2                   0
# GENERATOR Randomized transaction write_data=7b, write_en=0, read_en=0, address=1b                   0
# GENERATOR Randomized transaction write_data=41, write_en=1, read_en=1, address=5                   0
# GENERATOR Randomized transaction write_data=93, write_en=1, read_en=0, address=1d                   0
# GENERATOR Randomized transaction write_data=41, write_en=1, read_en=1, address=1f                   0
# GENERATOR Randomized transaction write_data=57, write_en=1, read_en=1, address=3                   0
# GENERATOR Randomized transaction write_data=f2, write_en=1, read_en=0, address=f                   0
# GENERATOR Randomized transaction write_data=5d, write_en=0, read_en=1, address=11                   0
# GENERATOR Randomized transaction write_data=e1, write_en=1, read_en=0, address=c                   0
# GENERATOR Randomized transaction write_data=20, write_en=1, read_en=1, address=0                   0
# GENERATOR Randomized transaction write_data=44, write_en=0, read_en=0, address=11                   0
# GENERATOR Randomized transaction write_data=8f, write_en=0, read_en=1, address=11                   0
# GENERATOR Randomized transaction write_data=84, write_en=0, read_en=1, address=a                   0
# GENERATOR Randomized transaction write_data=e1, write_en=1, read_en=1, address=10                   0
# DRIVER WRITE OPERATION DRIVING DATA TO THE INTERFACE write_data=24, write_en=1, read_en=1,address=11                  30
# MONITOR PASSING THE DATA TO SCOREBOARD data_out=z                  30
# SCOREBOARD REF data_out=z, MON data_out=z                  30
# DATA MATCH SUCCESSFUL. MATCH count = 1
# DRIVER WRITE OPERATION DRIVING DATA TO THE INTERFACE write_data=3a, write_en=1, read_en=1,address=d                  70
# MONITOR PASSING THE DATA TO SCOREBOARD data_out=z                  70
# SCOREBOARD REF data_out=z, MON data_out=z                  70
# DATA MATCH SUCCESSFUL. MATCH count = 2
# DRIVER WRITE OPERATION DRIVING DATA TO THE INTERFACE write_data=z, write_en=0, read_en=0,address=0                 110
# MONITOR PASSING THE DATA TO SCOREBOARD data_out=z                 110
# SCOREBOARD REF data_out=z, MON data_out=z                 110
# DATA MATCH SUCCESSFUL. MATCH count = 3
# DRIVER WRITE OPERATION DRIVING DATA TO THE INTERFACE write_data=z, write_en=0, read_en=0,address=0                 150
# MONITOR PASSING THE DATA TO SCOREBOARD data_out=z                 150
# SCOREBOARD REF data_out=z, MON data_out=z                 150
# DATA MATCH SUCCESSFUL. MATCH count = 4
# DRIVER WRITE OPERATION DRIVING DATA TO THE INTERFACE write_data=59, write_en=0, read_en=1,address=14                 190
# MONITOR PASSING THE DATA TO SCOREBOARD data_out=x                 190
# REFERENCE MODEL DATA IN MEMORY MEM[14]=x                 190
# SCOREBOARD REF data_out=x, MON data_out=x                 190
# DATA MATCH SUCCESSFUL. MATCH count = 5
# DRIVER WRITE OPERATION DRIVING DATA TO THE INTERFACE write_data=e9, write_en=0, read_en=0,address=7                 230
# MONITOR PASSING THE DATA TO SCOREBOARD data_out=z                 230
# SCOREBOARD REF data_out=z, MON data_out=z                 230
# DATA MATCH SUCCESSFUL. MATCH count = 6
# DRIVER WRITE OPERATION DRIVING DATA TO THE INTERFACE write_data=a1, write_en=1, read_en=1,address=c                 270
# MONITOR PASSING THE DATA TO SCOREBOARD data_out=z                 270
# SCOREBOARD REF data_out=z, MON data_out=z                 270
# DATA MATCH SUCCESSFUL. MATCH count = 7
# DRIVER WRITE OPERATION DRIVING DATA TO THE INTERFACE write_data=df, write_en=0, read_en=1,address=19                 310
# MONITOR PASSING THE DATA TO SCOREBOARD data_out=x                 310
# REFERENCE MODEL DATA IN MEMORY MEM[19]=x                 310
# SCOREBOARD REF data_out=x, MON data_out=x                 310
# DATA MATCH SUCCESSFUL. MATCH count = 8
# DRIVER WRITE OPERATION DRIVING DATA TO THE INTERFACE write_data=de, write_en=1, read_en=0,address=2                 350
# MONITOR PASSING THE DATA TO SCOREBOARD data_out=z                 350
# REFERENCE MODEL DATA IN MEMORY MEM[2]=de                 350
# SCOREBOARD REF data_out=x, MON data_out=z                 350
# DATA MATCH FAILURE. MISMATCH count = 1
# DRIVER WRITE OPERATION DRIVING DATA TO THE INTERFACE write_data=51, write_en=0, read_en=1,address=8                 390
# MONITOR PASSING THE DATA TO SCOREBOARD data_out=x                 390
# REFERENCE MODEL DATA IN MEMORY MEM[8]=x                 390
# SCOREBOARD REF data_out=x, MON data_out=x                 390
# DATA MATCH SUCCESSFUL. MATCH count = 9
# DRIVER WRITE OPERATION DRIVING DATA TO THE INTERFACE write_data=d, write_en=1, read_en=1,address=1a                 430
# MONITOR PASSING THE DATA TO SCOREBOARD data_out=z                 430
# SCOREBOARD REF data_out=z, MON data_out=z                 430
# DATA MATCH SUCCESSFUL. MATCH count = 10
# DRIVER WRITE OPERATION DRIVING DATA TO THE INTERFACE write_data=63, write_en=1, read_en=1,address=6                 470
# MONITOR PASSING THE DATA TO SCOREBOARD data_out=z                 470
# SCOREBOARD REF data_out=z, MON data_out=z                 470
# DATA MATCH SUCCESSFUL. MATCH count = 11
# DRIVER WRITE OPERATION DRIVING DATA TO THE INTERFACE write_data=56, write_en=1, read_en=1,address=19                 510
# MONITOR PASSING THE DATA TO SCOREBOARD data_out=z                 510
# SCOREBOARD REF data_out=z, MON data_out=z                 510
# DATA MATCH SUCCESSFUL. MATCH count = 12
# DRIVER WRITE OPERATION DRIVING DATA TO THE INTERFACE write_data=c8, write_en=0, read_en=0,address=1f                 550
# MONITOR PASSING THE DATA TO SCOREBOARD data_out=z                 550
# SCOREBOARD REF data_out=z, MON data_out=z                 550
# DATA MATCH SUCCESSFUL. MATCH count = 13
# DRIVER WRITE OPERATION DRIVING DATA TO THE INTERFACE write_data=fc, write_en=1, read_en=0,address=19                 590
# MONITOR PASSING THE DATA TO SCOREBOARD data_out=z                 590
# REFERENCE MODEL DATA IN MEMORY MEM[19]=fc                 590
# SCOREBOARD REF data_out=x, MON data_out=z                 590
# DATA MATCH FAILURE. MISMATCH count = 2
# DRIVER WRITE OPERATION DRIVING DATA TO THE INTERFACE write_data=a, write_en=1, read_en=0,address=1e                 630
# MONITOR PASSING THE DATA TO SCOREBOARD data_out=z                 630
# REFERENCE MODEL DATA IN MEMORY MEM[1e]=a                 630
# SCOREBOARD REF data_out=x, MON data_out=z                 630
# DATA MATCH FAILURE. MISMATCH count = 3
# DRIVER WRITE OPERATION DRIVING DATA TO THE INTERFACE write_data=ce, write_en=0, read_en=1,address=2                 670
# MONITOR PASSING THE DATA TO SCOREBOARD data_out=de                 670
# REFERENCE MODEL DATA IN MEMORY MEM[2]=de                 670
# SCOREBOARD REF data_out=de, MON data_out=de                 670
# DATA MATCH SUCCESSFUL. MATCH count = 14
# DRIVER WRITE OPERATION DRIVING DATA TO THE INTERFACE write_data=41, write_en=1, read_en=1,address=15                 710
# MONITOR PASSING THE DATA TO SCOREBOARD data_out=z                 710
# SCOREBOARD REF data_out=z, MON data_out=z                 710
# DATA MATCH SUCCESSFUL. MATCH count = 15
# DRIVER WRITE OPERATION DRIVING DATA TO THE INTERFACE write_data=22, write_en=1, read_en=1,address=2                 750
# MONITOR PASSING THE DATA TO SCOREBOARD data_out=z                 750
# SCOREBOARD REF data_out=z, MON data_out=z                 750
# DATA MATCH SUCCESSFUL. MATCH count = 16
# DRIVER WRITE OPERATION DRIVING DATA TO THE INTERFACE write_data=7b, write_en=0, read_en=0,address=1b                 790
# MONITOR PASSING THE DATA TO SCOREBOARD data_out=z                 790
# SCOREBOARD REF data_out=z, MON data_out=z                 790
# DATA MATCH SUCCESSFUL. MATCH count = 17
# DRIVER WRITE OPERATION DRIVING DATA TO THE INTERFACE write_data=41, write_en=1, read_en=1,address=5                 830
# MONITOR PASSING THE DATA TO SCOREBOARD data_out=z                 830
# SCOREBOARD REF data_out=z, MON data_out=z                 830
# DATA MATCH SUCCESSFUL. MATCH count = 18
# DRIVER WRITE OPERATION DRIVING DATA TO THE INTERFACE write_data=93, write_en=1, read_en=0,address=1d                 870
# MONITOR PASSING THE DATA TO SCOREBOARD data_out=z                 870
# REFERENCE MODEL DATA IN MEMORY MEM[1d]=93                 870
# SCOREBOARD REF data_out=x, MON data_out=z                 870
# DATA MATCH FAILURE. MISMATCH count = 4
# DRIVER WRITE OPERATION DRIVING DATA TO THE INTERFACE write_data=41, write_en=1, read_en=1,address=1f                 910
# MONITOR PASSING THE DATA TO SCOREBOARD data_out=z                 910
# SCOREBOARD REF data_out=z, MON data_out=z                 910
# DATA MATCH SUCCESSFUL. MATCH count = 19
# DRIVER WRITE OPERATION DRIVING DATA TO THE INTERFACE write_data=57, write_en=1, read_en=1,address=3                 950
# MONITOR PASSING THE DATA TO SCOREBOARD data_out=z                 950
# SCOREBOARD REF data_out=z, MON data_out=z                 950
# DATA MATCH SUCCESSFUL. MATCH count = 20
# DRIVER WRITE OPERATION DRIVING DATA TO THE INTERFACE write_data=f2, write_en=1, read_en=0,address=f                 990
# MONITOR PASSING THE DATA TO SCOREBOARD data_out=z                 990
# REFERENCE MODEL DATA IN MEMORY MEM[f]=f2                 990
# SCOREBOARD REF data_out=x, MON data_out=z                 990
# DATA MATCH FAILURE. MISMATCH count = 5
# DRIVER WRITE OPERATION DRIVING DATA TO THE INTERFACE write_data=5d, write_en=0, read_en=1,address=11                1030
# MONITOR PASSING THE DATA TO SCOREBOARD data_out=x                1030
# REFERENCE MODEL DATA IN MEMORY MEM[11]=x                1030
# SCOREBOARD REF data_out=x, MON data_out=x                1030
# DATA MATCH SUCCESSFUL. MATCH count = 21
# DRIVER WRITE OPERATION DRIVING DATA TO THE INTERFACE write_data=e1, write_en=1, read_en=0,address=c                1070
# MONITOR PASSING THE DATA TO SCOREBOARD data_out=z                1070
# REFERENCE MODEL DATA IN MEMORY MEM[c]=e1                1070
# SCOREBOARD REF data_out=x, MON data_out=z                1070
# DATA MATCH FAILURE. MISMATCH count = 6
# DRIVER WRITE OPERATION DRIVING DATA TO THE INTERFACE write_data=20, write_en=1, read_en=1,address=0                1110
# MONITOR PASSING THE DATA TO SCOREBOARD data_out=z                1110
# SCOREBOARD REF data_out=z, MON data_out=z                1110
# DATA MATCH SUCCESSFUL. MATCH count = 22
# DRIVER WRITE OPERATION DRIVING DATA TO THE INTERFACE write_data=44, write_en=0, read_en=0,address=11                1150
# MONITOR PASSING THE DATA TO SCOREBOARD data_out=z                1150
# SCOREBOARD REF data_out=z, MON data_out=z                1150
# DATA MATCH SUCCESSFUL. MATCH count = 23
# DRIVER WRITE OPERATION DRIVING DATA TO THE INTERFACE write_data=8f, write_en=0, read_en=1,address=11                1190
# MONITOR PASSING THE DATA TO SCOREBOARD data_out=x                1190
# REFERENCE MODEL DATA IN MEMORY MEM[11]=x                1190
# SCOREBOARD REF data_out=x, MON data_out=x                1190
# DATA MATCH SUCCESSFUL. MATCH count = 24
# DRIVER WRITE OPERATION DRIVING DATA TO THE INTERFACE write_data=84, write_en=0, read_en=1,address=a                1230
# MONITOR PASSING THE DATA TO SCOREBOARD data_out=x                1230
# REFERENCE MODEL DATA IN MEMORY MEM[a]=x                1230
# SCOREBOARD REF data_out=x, MON data_out=x                1230
# DATA MATCH SUCCESSFUL. MATCH count = 25
# DRIVER WRITE OPERATION DRIVING DATA TO THE INTERFACE write_data=e1, write_en=1, read_en=1,address=10                1270
# MONITOR PASSING THE DATA TO SCOREBOARD data_out=z                1270
# SCOREBOARD REF data_out=z, MON data_out=z                1270
# DATA MATCH SUCCESSFUL. MATCH count = 26
# GENERATOR Randomized transaction write_data=1f, write_en=1, read_en=0, address=1a                1270
# GENERATOR Randomized transaction write_data=96, write_en=1, read_en=0, address=3                1270
# GENERATOR Randomized transaction write_data=cf, write_en=1, read_en=0, address=10                1270
# GENERATOR Randomized transaction write_data=44, write_en=1, read_en=0, address=e                1270
# GENERATOR Randomized transaction write_data=4e, write_en=1, read_en=0, address=11                1270
# GENERATOR Randomized transaction write_data=1d, write_en=1, read_en=0, address=5                1270
# GENERATOR Randomized transaction write_data=ef, write_en=1, read_en=0, address=d                1270
# GENERATOR Randomized transaction write_data=74, write_en=1, read_en=0, address=10                1270
# GENERATOR Randomized transaction write_data=ed, write_en=1, read_en=0, address=15                1270
# GENERATOR Randomized transaction write_data=a5, write_en=1, read_en=0, address=7                1270
# GENERATOR Randomized transaction write_data=db, write_en=1, read_en=0, address=1d                1270
# GENERATOR Randomized transaction write_data=c5, write_en=1, read_en=0, address=7                1270
# GENERATOR Randomized transaction write_data=d2, write_en=1, read_en=0, address=c                1270
# GENERATOR Randomized transaction write_data=cd, write_en=1, read_en=0, address=3                1270
# GENERATOR Randomized transaction write_data=8e, write_en=1, read_en=0, address=9                1270
# GENERATOR Randomized transaction write_data=a8, write_en=1, read_en=0, address=13                1270
# GENERATOR Randomized transaction write_data=7, write_en=1, read_en=0, address=a                1270
# GENERATOR Randomized transaction write_data=1f, write_en=1, read_en=0, address=1a                1270
# GENERATOR Randomized transaction write_data=43, write_en=1, read_en=0, address=0                1270
# GENERATOR Randomized transaction write_data=ce, write_en=1, read_en=0, address=f                1270
# GENERATOR Randomized transaction write_data=bd, write_en=1, read_en=0, address=1a                1270
# GENERATOR Randomized transaction write_data=7c, write_en=1, read_en=0, address=2                1270
# GENERATOR Randomized transaction write_data=12, write_en=1, read_en=0, address=13                1270
# GENERATOR Randomized transaction write_data=9b, write_en=1, read_en=0, address=11                1270
# GENERATOR Randomized transaction write_data=cc, write_en=1, read_en=0, address=19                1270
# GENERATOR Randomized transaction write_data=83, write_en=1, read_en=0, address=19                1270
# GENERATOR Randomized transaction write_data=70, write_en=1, read_en=0, address=f                1270
# GENERATOR Randomized transaction write_data=70, write_en=1, read_en=0, address=19                1270
# GENERATOR Randomized transaction write_data=a5, write_en=1, read_en=0, address=1                1270
# GENERATOR Randomized transaction write_data=79, write_en=1, read_en=0, address=b                1270
# GENERATOR Randomized transaction write_data=78, write_en=1, read_en=0, address=b                1270
# GENERATOR Randomized transaction write_data=f6, write_en=1, read_en=0, address=0                1270
# DRIVER WRITE OPERATION DRIVING DATA TO THE INTERFACE write_data=1f, write_en=1, read_en=0,address=1a                1310
# MONITOR PASSING THE DATA TO SCOREBOARD data_out=z                1310
# REFERENCE MODEL DATA IN MEMORY MEM[1a]=1f                1310
# SCOREBOARD REF data_out=x, MON data_out=z                1310
# DATA MATCH FAILURE. MISMATCH count = 7
# DRIVER WRITE OPERATION DRIVING DATA TO THE INTERFACE write_data=96, write_en=1, read_en=0,address=3                1350
# MONITOR PASSING THE DATA TO SCOREBOARD data_out=z                1350
# REFERENCE MODEL DATA IN MEMORY MEM[3]=96                1350
# SCOREBOARD REF data_out=x, MON data_out=z                1350
# DATA MATCH FAILURE. MISMATCH count = 8
# DRIVER WRITE OPERATION DRIVING DATA TO THE INTERFACE write_data=cf, write_en=1, read_en=0,address=10                1390
# MONITOR PASSING THE DATA TO SCOREBOARD data_out=z                1390
# REFERENCE MODEL DATA IN MEMORY MEM[10]=cf                1390
# SCOREBOARD REF data_out=x, MON data_out=z                1390
# DATA MATCH FAILURE. MISMATCH count = 9
# DRIVER WRITE OPERATION DRIVING DATA TO THE INTERFACE write_data=44, write_en=1, read_en=0,address=e                1430
# MONITOR PASSING THE DATA TO SCOREBOARD data_out=z                1430
# REFERENCE MODEL DATA IN MEMORY MEM[e]=44                1430
# SCOREBOARD REF data_out=x, MON data_out=z                1430
# DATA MATCH FAILURE. MISMATCH count = 10
# DRIVER WRITE OPERATION DRIVING DATA TO THE INTERFACE write_data=4e, write_en=1, read_en=0,address=11                1470
# MONITOR PASSING THE DATA TO SCOREBOARD data_out=z                1470
# REFERENCE MODEL DATA IN MEMORY MEM[11]=4e                1470
# SCOREBOARD REF data_out=x, MON data_out=z                1470
# DATA MATCH FAILURE. MISMATCH count = 11
# DRIVER WRITE OPERATION DRIVING DATA TO THE INTERFACE write_data=1d, write_en=1, read_en=0,address=5                1510
# MONITOR PASSING THE DATA TO SCOREBOARD data_out=z                1510
# REFERENCE MODEL DATA IN MEMORY MEM[5]=1d                1510
# SCOREBOARD REF data_out=x, MON data_out=z                1510
# DATA MATCH FAILURE. MISMATCH count = 12
# DRIVER WRITE OPERATION DRIVING DATA TO THE INTERFACE write_data=ef, write_en=1, read_en=0,address=d                1550
# MONITOR PASSING THE DATA TO SCOREBOARD data_out=z                1550
# REFERENCE MODEL DATA IN MEMORY MEM[d]=ef                1550
# SCOREBOARD REF data_out=x, MON data_out=z                1550
# DATA MATCH FAILURE. MISMATCH count = 13
# DRIVER WRITE OPERATION DRIVING DATA TO THE INTERFACE write_data=74, write_en=1, read_en=0,address=10                1590
# MONITOR PASSING THE DATA TO SCOREBOARD data_out=z                1590
# REFERENCE MODEL DATA IN MEMORY MEM[10]=74                1590
# SCOREBOARD REF data_out=x, MON data_out=z                1590
# DATA MATCH FAILURE. MISMATCH count = 14
# DRIVER WRITE OPERATION DRIVING DATA TO THE INTERFACE write_data=ed, write_en=1, read_en=0,address=15                1630
# MONITOR PASSING THE DATA TO SCOREBOARD data_out=z                1630
# REFERENCE MODEL DATA IN MEMORY MEM[15]=ed                1630
# SCOREBOARD REF data_out=x, MON data_out=z                1630
# DATA MATCH FAILURE. MISMATCH count = 15
# DRIVER WRITE OPERATION DRIVING DATA TO THE INTERFACE write_data=a5, write_en=1, read_en=0,address=7                1670
# MONITOR PASSING THE DATA TO SCOREBOARD data_out=z                1670
# REFERENCE MODEL DATA IN MEMORY MEM[7]=a5                1670
# SCOREBOARD REF data_out=x, MON data_out=z                1670
# DATA MATCH FAILURE. MISMATCH count = 16
# DRIVER WRITE OPERATION DRIVING DATA TO THE INTERFACE write_data=db, write_en=1, read_en=0,address=1d                1710
# MONITOR PASSING THE DATA TO SCOREBOARD data_out=z                1710
# REFERENCE MODEL DATA IN MEMORY MEM[1d]=db                1710
# SCOREBOARD REF data_out=x, MON data_out=z                1710
# DATA MATCH FAILURE. MISMATCH count = 17
# DRIVER WRITE OPERATION DRIVING DATA TO THE INTERFACE write_data=c5, write_en=1, read_en=0,address=7                1750
# MONITOR PASSING THE DATA TO SCOREBOARD data_out=z                1750
# REFERENCE MODEL DATA IN MEMORY MEM[7]=c5                1750
# SCOREBOARD REF data_out=x, MON data_out=z                1750
# DATA MATCH FAILURE. MISMATCH count = 18
# DRIVER WRITE OPERATION DRIVING DATA TO THE INTERFACE write_data=d2, write_en=1, read_en=0,address=c                1790
# MONITOR PASSING THE DATA TO SCOREBOARD data_out=z                1790
# REFERENCE MODEL DATA IN MEMORY MEM[c]=d2                1790
# SCOREBOARD REF data_out=x, MON data_out=z                1790
# DATA MATCH FAILURE. MISMATCH count = 19
# DRIVER WRITE OPERATION DRIVING DATA TO THE INTERFACE write_data=cd, write_en=1, read_en=0,address=3                1830
# MONITOR PASSING THE DATA TO SCOREBOARD data_out=z                1830
# REFERENCE MODEL DATA IN MEMORY MEM[3]=cd                1830
# SCOREBOARD REF data_out=x, MON data_out=z                1830
# DATA MATCH FAILURE. MISMATCH count = 20
# DRIVER WRITE OPERATION DRIVING DATA TO THE INTERFACE write_data=8e, write_en=1, read_en=0,address=9                1870
# MONITOR PASSING THE DATA TO SCOREBOARD data_out=z                1870
# REFERENCE MODEL DATA IN MEMORY MEM[9]=8e                1870
# SCOREBOARD REF data_out=x, MON data_out=z                1870
# DATA MATCH FAILURE. MISMATCH count = 21
# DRIVER WRITE OPERATION DRIVING DATA TO THE INTERFACE write_data=a8, write_en=1, read_en=0,address=13                1910
# MONITOR PASSING THE DATA TO SCOREBOARD data_out=z                1910
# REFERENCE MODEL DATA IN MEMORY MEM[13]=a8                1910
# SCOREBOARD REF data_out=x, MON data_out=z                1910
# DATA MATCH FAILURE. MISMATCH count = 22
# DRIVER WRITE OPERATION DRIVING DATA TO THE INTERFACE write_data=7, write_en=1, read_en=0,address=a                1950
# MONITOR PASSING THE DATA TO SCOREBOARD data_out=z                1950
# REFERENCE MODEL DATA IN MEMORY MEM[a]=7                1950
# SCOREBOARD REF data_out=x, MON data_out=z                1950
# DATA MATCH FAILURE. MISMATCH count = 23
# DRIVER WRITE OPERATION DRIVING DATA TO THE INTERFACE write_data=1f, write_en=1, read_en=0,address=1a                1990
# MONITOR PASSING THE DATA TO SCOREBOARD data_out=z                1990
# REFERENCE MODEL DATA IN MEMORY MEM[1a]=1f                1990
# SCOREBOARD REF data_out=x, MON data_out=z                1990
# DATA MATCH FAILURE. MISMATCH count = 24
# DRIVER WRITE OPERATION DRIVING DATA TO THE INTERFACE write_data=43, write_en=1, read_en=0,address=0                2030
# MONITOR PASSING THE DATA TO SCOREBOARD data_out=z                2030
# REFERENCE MODEL DATA IN MEMORY MEM[0]=43                2030
# SCOREBOARD REF data_out=x, MON data_out=z                2030
# DATA MATCH FAILURE. MISMATCH count = 25
# DRIVER WRITE OPERATION DRIVING DATA TO THE INTERFACE write_data=ce, write_en=1, read_en=0,address=f                2070
# MONITOR PASSING THE DATA TO SCOREBOARD data_out=z                2070
# REFERENCE MODEL DATA IN MEMORY MEM[f]=ce                2070
# SCOREBOARD REF data_out=x, MON data_out=z                2070
# DATA MATCH FAILURE. MISMATCH count = 26
# DRIVER WRITE OPERATION DRIVING DATA TO THE INTERFACE write_data=bd, write_en=1, read_en=0,address=1a                2110
# MONITOR PASSING THE DATA TO SCOREBOARD data_out=z                2110
# REFERENCE MODEL DATA IN MEMORY MEM[1a]=bd                2110
# SCOREBOARD REF data_out=x, MON data_out=z                2110
# DATA MATCH FAILURE. MISMATCH count = 27
# DRIVER WRITE OPERATION DRIVING DATA TO THE INTERFACE write_data=7c, write_en=1, read_en=0,address=2                2150
# MONITOR PASSING THE DATA TO SCOREBOARD data_out=z                2150
# REFERENCE MODEL DATA IN MEMORY MEM[2]=7c                2150
# SCOREBOARD REF data_out=x, MON data_out=z                2150
# DATA MATCH FAILURE. MISMATCH count = 28
# DRIVER WRITE OPERATION DRIVING DATA TO THE INTERFACE write_data=12, write_en=1, read_en=0,address=13                2190
# MONITOR PASSING THE DATA TO SCOREBOARD data_out=z                2190
# REFERENCE MODEL DATA IN MEMORY MEM[13]=12                2190
# SCOREBOARD REF data_out=x, MON data_out=z                2190
# DATA MATCH FAILURE. MISMATCH count = 29
# DRIVER WRITE OPERATION DRIVING DATA TO THE INTERFACE write_data=9b, write_en=1, read_en=0,address=11                2230
# MONITOR PASSING THE DATA TO SCOREBOARD data_out=z                2230
# REFERENCE MODEL DATA IN MEMORY MEM[11]=9b                2230
# SCOREBOARD REF data_out=x, MON data_out=z                2230
# DATA MATCH FAILURE. MISMATCH count = 30
# DRIVER WRITE OPERATION DRIVING DATA TO THE INTERFACE write_data=cc, write_en=1, read_en=0,address=19                2270
# MONITOR PASSING THE DATA TO SCOREBOARD data_out=z                2270
# REFERENCE MODEL DATA IN MEMORY MEM[19]=cc                2270
# SCOREBOARD REF data_out=x, MON data_out=z                2270
# DATA MATCH FAILURE. MISMATCH count = 31
# DRIVER WRITE OPERATION DRIVING DATA TO THE INTERFACE write_data=83, write_en=1, read_en=0,address=19                2310
# MONITOR PASSING THE DATA TO SCOREBOARD data_out=z                2310
# REFERENCE MODEL DATA IN MEMORY MEM[19]=83                2310
# SCOREBOARD REF data_out=x, MON data_out=z                2310
# DATA MATCH FAILURE. MISMATCH count = 32
# DRIVER WRITE OPERATION DRIVING DATA TO THE INTERFACE write_data=70, write_en=1, read_en=0,address=f                2350
# MONITOR PASSING THE DATA TO SCOREBOARD data_out=z                2350
# REFERENCE MODEL DATA IN MEMORY MEM[f]=70                2350
# SCOREBOARD REF data_out=x, MON data_out=z                2350
# DATA MATCH FAILURE. MISMATCH count = 33
# DRIVER WRITE OPERATION DRIVING DATA TO THE INTERFACE write_data=70, write_en=1, read_en=0,address=19                2390
# MONITOR PASSING THE DATA TO SCOREBOARD data_out=z                2390
# REFERENCE MODEL DATA IN MEMORY MEM[19]=70                2390
# SCOREBOARD REF data_out=x, MON data_out=z                2390
# DATA MATCH FAILURE. MISMATCH count = 34
# DRIVER WRITE OPERATION DRIVING DATA TO THE INTERFACE write_data=a5, write_en=1, read_en=0,address=1                2430
# MONITOR PASSING THE DATA TO SCOREBOARD data_out=z                2430
# REFERENCE MODEL DATA IN MEMORY MEM[1]=a5                2430
# SCOREBOARD REF data_out=x, MON data_out=z                2430
# DATA MATCH FAILURE. MISMATCH count = 35
# DRIVER WRITE OPERATION DRIVING DATA TO THE INTERFACE write_data=79, write_en=1, read_en=0,address=b                2470
# MONITOR PASSING THE DATA TO SCOREBOARD data_out=z                2470
# REFERENCE MODEL DATA IN MEMORY MEM[b]=79                2470
# SCOREBOARD REF data_out=x, MON data_out=z                2470
# DATA MATCH FAILURE. MISMATCH count = 36
# DRIVER WRITE OPERATION DRIVING DATA TO THE INTERFACE write_data=78, write_en=1, read_en=0,address=b                2510
# MONITOR PASSING THE DATA TO SCOREBOARD data_out=z                2510
# REFERENCE MODEL DATA IN MEMORY MEM[b]=78                2510
# SCOREBOARD REF data_out=x, MON data_out=z                2510
# DATA MATCH FAILURE. MISMATCH count = 37
# DRIVER WRITE OPERATION DRIVING DATA TO THE INTERFACE write_data=f6, write_en=1, read_en=0,address=0                2550
# MONITOR PASSING THE DATA TO SCOREBOARD data_out=z                2550
# REFERENCE MODEL DATA IN MEMORY MEM[0]=f6                2550
# SCOREBOARD REF data_out=x, MON data_out=z                2550
# DATA MATCH FAILURE. MISMATCH count = 38
# GENERATOR Randomized transaction write_data=ad, write_en=0, read_en=1, address=8                2550
# GENERATOR Randomized transaction write_data=9c, write_en=0, read_en=1, address=1c                2550
# GENERATOR Randomized transaction write_data=f2, write_en=0, read_en=1, address=a                2550
# GENERATOR Randomized transaction write_data=44, write_en=0, read_en=1, address=4                2550
# GENERATOR Randomized transaction write_data=bf, write_en=0, read_en=1, address=15                2550
# GENERATOR Randomized transaction write_data=fc, write_en=0, read_en=1, address=9                2550
# GENERATOR Randomized transaction write_data=5f, write_en=0, read_en=1, address=0                2550
# GENERATOR Randomized transaction write_data=96, write_en=0, read_en=1, address=1f                2550
# GENERATOR Randomized transaction write_data=83, write_en=0, read_en=1, address=e                2550
# GENERATOR Randomized transaction write_data=b3, write_en=0, read_en=1, address=2                2550
# GENERATOR Randomized transaction write_data=1, write_en=0, read_en=1, address=c                2550
# GENERATOR Randomized transaction write_data=ac, write_en=0, read_en=1, address=1e                2550
# GENERATOR Randomized transaction write_data=b6, write_en=0, read_en=1, address=8                2550
# GENERATOR Randomized transaction write_data=bb, write_en=0, read_en=1, address=e                2550
# GENERATOR Randomized transaction write_data=10, write_en=0, read_en=1, address=e                2550
# GENERATOR Randomized transaction write_data=6f, write_en=0, read_en=1, address=16                2550
# GENERATOR Randomized transaction write_data=4d, write_en=0, read_en=1, address=0                2550
# GENERATOR Randomized transaction write_data=f2, write_en=0, read_en=1, address=2                2550
# GENERATOR Randomized transaction write_data=c1, write_en=0, read_en=1, address=a                2550
# GENERATOR Randomized transaction write_data=b6, write_en=0, read_en=1, address=12                2550
# GENERATOR Randomized transaction write_data=1c, write_en=0, read_en=1, address=1f                2550
